<svg xmlns="http://www.w3.org/2000/svg" width="8000" height="10000" viewBox="0 0 8000 10000">
  <defs>
    <style>
      .cls-1 {
        fill: #62dfd2;
      }

      .cls-1, .cls-2 {
        fill-rule: evenodd;
      }

      .cls-2 {
        fill: #fff;
      }
    </style>
  </defs>
  <path class="cls-1" d="M6226,4020.24c0,859.32-789.78,1555.77-1764,1555.77S2698,4879.56,2698,4020.24c0-859.13,1764-3457.253,1764-3457.253S6226,3161.11,6226,4020.24Z"/>
  <path class="cls-2" d="M6322,5811.77c0,1221.36-1146.83,2211.22-2561.5,2211.22S1199,7033.13,1199,5811.77c0-1221.06,2561.5-4913.76,2561.5-4913.76S6322,4590.71,6322,5811.77Z"/>
</svg>
