<svg xmlns="http://www.w3.org/2000/svg" viewBox="0 0 876 456" id="el_ECd6U6ckS"><style>@-webkit-keyframes kf_el_aEFgV7p5XY_an_Wum_W6rF5{0%{-webkit-transform: translate(602.994384765625px, 305.003173828125px) translate(-602.994384765625px, -305.003173828125px) translate(0px, 10px);transform: translate(602.994384765625px, 305.003173828125px) translate(-602.994384765625px, -305.003173828125px) translate(0px, 10px);}25%{-webkit-transform: translate(602.994384765625px, 305.003173828125px) translate(-602.994384765625px, -305.003173828125px) translate(0px, 0px);transform: translate(602.994384765625px, 305.003173828125px) translate(-602.994384765625px, -305.003173828125px) translate(0px, 0px);}50%{-webkit-transform: translate(602.994384765625px, 305.003173828125px) translate(-602.994384765625px, -305.003173828125px) translate(0px, 10px);transform: translate(602.994384765625px, 305.003173828125px) translate(-602.994384765625px, -305.003173828125px) translate(0px, 10px);}75%{-webkit-transform: translate(602.994384765625px, 305.003173828125px) translate(-602.994384765625px, -305.003173828125px) translate(0px, 0px);transform: translate(602.994384765625px, 305.003173828125px) translate(-602.994384765625px, -305.003173828125px) translate(0px, 0px);}100%{-webkit-transform: translate(602.994384765625px, 305.003173828125px) translate(-602.994384765625px, -305.003173828125px) translate(0px, 10px);transform: translate(602.994384765625px, 305.003173828125px) translate(-602.994384765625px, -305.003173828125px) translate(0px, 10px);}}@keyframes kf_el_aEFgV7p5XY_an_Wum_W6rF5{0%{-webkit-transform: translate(602.994384765625px, 305.003173828125px) translate(-602.994384765625px, -305.003173828125px) translate(0px, 10px);transform: translate(602.994384765625px, 305.003173828125px) translate(-602.994384765625px, -305.003173828125px) translate(0px, 10px);}25%{-webkit-transform: translate(602.994384765625px, 305.003173828125px) translate(-602.994384765625px, -305.003173828125px) translate(0px, 0px);transform: translate(602.994384765625px, 305.003173828125px) translate(-602.994384765625px, -305.003173828125px) translate(0px, 0px);}50%{-webkit-transform: translate(602.994384765625px, 305.003173828125px) translate(-602.994384765625px, -305.003173828125px) translate(0px, 10px);transform: translate(602.994384765625px, 305.003173828125px) translate(-602.994384765625px, -305.003173828125px) translate(0px, 10px);}75%{-webkit-transform: translate(602.994384765625px, 305.003173828125px) translate(-602.994384765625px, -305.003173828125px) translate(0px, 0px);transform: translate(602.994384765625px, 305.003173828125px) translate(-602.994384765625px, -305.003173828125px) translate(0px, 0px);}100%{-webkit-transform: translate(602.994384765625px, 305.003173828125px) translate(-602.994384765625px, -305.003173828125px) translate(0px, 10px);transform: translate(602.994384765625px, 305.003173828125px) translate(-602.994384765625px, -305.003173828125px) translate(0px, 10px);}}@-webkit-keyframes kf_el_DE3uIC5ab1_an_3pedE2qDM{0%{-webkit-transform: translate(424.90484619140625px, 374.99560546875px) translate(-424.90484619140625px, -374.99560546875px) translate(0px, 0px);transform: translate(424.90484619140625px, 374.99560546875px) translate(-424.90484619140625px, -374.99560546875px) translate(0px, 0px);}25%{-webkit-transform: translate(424.90484619140625px, 374.99560546875px) translate(-424.90484619140625px, -374.99560546875px) translate(0px, 10px);transform: translate(424.90484619140625px, 374.99560546875px) translate(-424.90484619140625px, -374.99560546875px) translate(0px, 10px);}50%{-webkit-transform: translate(424.90484619140625px, 374.99560546875px) translate(-424.90484619140625px, -374.99560546875px) translate(0px, 0px);transform: translate(424.90484619140625px, 374.99560546875px) translate(-424.90484619140625px, -374.99560546875px) translate(0px, 0px);}75%{-webkit-transform: translate(424.90484619140625px, 374.99560546875px) translate(-424.90484619140625px, -374.99560546875px) translate(0px, 10px);transform: translate(424.90484619140625px, 374.99560546875px) translate(-424.90484619140625px, -374.99560546875px) translate(0px, 10px);}100%{-webkit-transform: translate(424.90484619140625px, 374.99560546875px) translate(-424.90484619140625px, -374.99560546875px) translate(0px, 0px);transform: translate(424.90484619140625px, 374.99560546875px) translate(-424.90484619140625px, -374.99560546875px) translate(0px, 0px);}}@keyframes kf_el_DE3uIC5ab1_an_3pedE2qDM{0%{-webkit-transform: translate(424.90484619140625px, 374.99560546875px) translate(-424.90484619140625px, -374.99560546875px) translate(0px, 0px);transform: translate(424.90484619140625px, 374.99560546875px) translate(-424.90484619140625px, -374.99560546875px) translate(0px, 0px);}25%{-webkit-transform: translate(424.90484619140625px, 374.99560546875px) translate(-424.90484619140625px, -374.99560546875px) translate(0px, 10px);transform: translate(424.90484619140625px, 374.99560546875px) translate(-424.90484619140625px, -374.99560546875px) translate(0px, 10px);}50%{-webkit-transform: translate(424.90484619140625px, 374.99560546875px) translate(-424.90484619140625px, -374.99560546875px) translate(0px, 0px);transform: translate(424.90484619140625px, 374.99560546875px) translate(-424.90484619140625px, -374.99560546875px) translate(0px, 0px);}75%{-webkit-transform: translate(424.90484619140625px, 374.99560546875px) translate(-424.90484619140625px, -374.99560546875px) translate(0px, 10px);transform: translate(424.90484619140625px, 374.99560546875px) translate(-424.90484619140625px, -374.99560546875px) translate(0px, 10px);}100%{-webkit-transform: translate(424.90484619140625px, 374.99560546875px) translate(-424.90484619140625px, -374.99560546875px) translate(0px, 0px);transform: translate(424.90484619140625px, 374.99560546875px) translate(-424.90484619140625px, -374.99560546875px) translate(0px, 0px);}}@-webkit-keyframes kf_el_WDu1q4h_0i_an_XQoPpbdxV{0%{-webkit-transform: translate(21.014997482299805px, 20.99468421936035px) translate(-21.014997482299805px, -20.99468421936035px) translate(0px, 10px);transform: translate(21.014997482299805px, 20.99468421936035px) translate(-21.014997482299805px, -20.99468421936035px) translate(0px, 10px);}25%{-webkit-transform: translate(21.014997482299805px, 20.99468421936035px) translate(-21.014997482299805px, -20.99468421936035px) translate(0px, 0px);transform: translate(21.014997482299805px, 20.99468421936035px) translate(-21.014997482299805px, -20.99468421936035px) translate(0px, 0px);}50%{-webkit-transform: translate(21.014997482299805px, 20.99468421936035px) translate(-21.014997482299805px, -20.99468421936035px) translate(0px, 10px);transform: translate(21.014997482299805px, 20.99468421936035px) translate(-21.014997482299805px, -20.99468421936035px) translate(0px, 10px);}75%{-webkit-transform: translate(21.014997482299805px, 20.99468421936035px) translate(-21.014997482299805px, -20.99468421936035px) translate(0px, 0px);transform: translate(21.014997482299805px, 20.99468421936035px) translate(-21.014997482299805px, -20.99468421936035px) translate(0px, 0px);}100%{-webkit-transform: translate(21.014997482299805px, 20.99468421936035px) translate(-21.014997482299805px, -20.99468421936035px) translate(0px, 10px);transform: translate(21.014997482299805px, 20.99468421936035px) translate(-21.014997482299805px, -20.99468421936035px) translate(0px, 10px);}}@keyframes kf_el_WDu1q4h_0i_an_XQoPpbdxV{0%{-webkit-transform: translate(21.014997482299805px, 20.99468421936035px) translate(-21.014997482299805px, -20.99468421936035px) translate(0px, 10px);transform: translate(21.014997482299805px, 20.99468421936035px) translate(-21.014997482299805px, -20.99468421936035px) translate(0px, 10px);}25%{-webkit-transform: translate(21.014997482299805px, 20.99468421936035px) translate(-21.014997482299805px, -20.99468421936035px) translate(0px, 0px);transform: translate(21.014997482299805px, 20.99468421936035px) translate(-21.014997482299805px, -20.99468421936035px) translate(0px, 0px);}50%{-webkit-transform: translate(21.014997482299805px, 20.99468421936035px) translate(-21.014997482299805px, -20.99468421936035px) translate(0px, 10px);transform: translate(21.014997482299805px, 20.99468421936035px) translate(-21.014997482299805px, -20.99468421936035px) translate(0px, 10px);}75%{-webkit-transform: translate(21.014997482299805px, 20.99468421936035px) translate(-21.014997482299805px, -20.99468421936035px) translate(0px, 0px);transform: translate(21.014997482299805px, 20.99468421936035px) translate(-21.014997482299805px, -20.99468421936035px) translate(0px, 0px);}100%{-webkit-transform: translate(21.014997482299805px, 20.99468421936035px) translate(-21.014997482299805px, -20.99468421936035px) translate(0px, 10px);transform: translate(21.014997482299805px, 20.99468421936035px) translate(-21.014997482299805px, -20.99468421936035px) translate(0px, 10px);}}@-webkit-keyframes kf_el_w1pANYMQHs_an_L5OcIQjG8{0%{-webkit-transform: translate(0px, -13.96875px) scale(1.1, 1.1) translate(0px, 13.96875px);transform: translate(0px, -13.96875px) scale(1.1, 1.1) translate(0px, 13.96875px);}100%{-webkit-transform: translate(0px, -13.96875px) scale(1.1, 1.1) translate(0px, 13.96875px);transform: translate(0px, -13.96875px) scale(1.1, 1.1) translate(0px, 13.96875px);}}@keyframes kf_el_w1pANYMQHs_an_L5OcIQjG8{0%{-webkit-transform: translate(0px, -13.96875px) scale(1.1, 1.1) translate(0px, 13.96875px);transform: translate(0px, -13.96875px) scale(1.1, 1.1) translate(0px, 13.96875px);}100%{-webkit-transform: translate(0px, -13.96875px) scale(1.1, 1.1) translate(0px, 13.96875px);transform: translate(0px, -13.96875px) scale(1.1, 1.1) translate(0px, 13.96875px);}}@-webkit-keyframes kf_el_w1pANYMQHs_an_TUpVhj6Qq{0%{-webkit-transform: translate(0px, -13.96875px) translate(0px, 13.96875px) translate(45px, 160px);transform: translate(0px, -13.96875px) translate(0px, 13.96875px) translate(45px, 160px);}100%{-webkit-transform: translate(0px, -13.96875px) translate(0px, 13.96875px) translate(45px, 160px);transform: translate(0px, -13.96875px) translate(0px, 13.96875px) translate(45px, 160px);}}@keyframes kf_el_w1pANYMQHs_an_TUpVhj6Qq{0%{-webkit-transform: translate(0px, -13.96875px) translate(0px, 13.96875px) translate(45px, 160px);transform: translate(0px, -13.96875px) translate(0px, 13.96875px) translate(45px, 160px);}100%{-webkit-transform: translate(0px, -13.96875px) translate(0px, 13.96875px) translate(45px, 160px);transform: translate(0px, -13.96875px) translate(0px, 13.96875px) translate(45px, 160px);}}#el_ECd6U6ckS *{-webkit-animation-duration: 4s;animation-duration: 4s;-webkit-animation-iteration-count: infinite;animation-iteration-count: infinite;-webkit-animation-timing-function: cubic-bezier(0, 0, 1, 1);animation-timing-function: cubic-bezier(0, 0, 1, 1);}#el_w1pANYMQHs{font-size: 30px;font-family: Prompt;fill: #fcf1d5;-webkit-transform: translate(-0.048px, 143.336px) scale(1.216, NaN);transform: translate(-0.048px, 143.336px) scale(1.216, NaN);}#el_aEFgV7p5XY{fill: #fcf1d5;fill-rule: evenodd;}#el_DE3uIC5ab1{fill: #fcf1d5;fill-rule: evenodd;}#el_WDu1q4h_0i{fill: #fcf1d5;fill-rule: evenodd;}#el_OztXP2wrnc_an_3iX1jYTDz{-webkit-transform: translate(0px, 0px) translate(0px, 0px) translate(45px, 45px);transform: translate(0px, 0px) translate(0px, 0px) translate(45px, 45px);}#el_OztXP2wrnc_an_3CO6jYo0e{-webkit-transform: translate(0px, 0px) translate(0px, 0px) translate(-200px, 200px);transform: translate(0px, 0px) translate(0px, 0px) translate(-200px, 200px);}#el_w1pANYMQHs_an_TUpVhj6Qq{-webkit-animation-fill-mode: backwards;animation-fill-mode: backwards;-webkit-transform: translate(0px, -13.96875px) translate(0px, 13.96875px) translate(45px, 160px);transform: translate(0px, -13.96875px) translate(0px, 13.96875px) translate(45px, 160px);-webkit-animation-name: kf_el_w1pANYMQHs_an_TUpVhj6Qq;animation-name: kf_el_w1pANYMQHs_an_TUpVhj6Qq;-webkit-animation-timing-function: cubic-bezier(0, 0, 1, 1);animation-timing-function: cubic-bezier(0, 0, 1, 1);}#el_w1pANYMQHs_an_L5OcIQjG8{-webkit-animation-fill-mode: backwards;animation-fill-mode: backwards;-webkit-transform: translate(0px, -13.96875px) scale(1.1, 1.1) translate(0px, 13.96875px);transform: translate(0px, -13.96875px) scale(1.1, 1.1) translate(0px, 13.96875px);-webkit-animation-name: kf_el_w1pANYMQHs_an_L5OcIQjG8;animation-name: kf_el_w1pANYMQHs_an_L5OcIQjG8;-webkit-animation-timing-function: cubic-bezier(0, 0, 1, 1);animation-timing-function: cubic-bezier(0, 0, 1, 1);}#el_WDu1q4h_0i_an_XQoPpbdxV{-webkit-animation-fill-mode: backwards;animation-fill-mode: backwards;-webkit-transform: translate(21.014997482299805px, 20.99468421936035px) translate(-21.014997482299805px, -20.99468421936035px) translate(0px, 10px);transform: translate(21.014997482299805px, 20.99468421936035px) translate(-21.014997482299805px, -20.99468421936035px) translate(0px, 10px);-webkit-animation-name: kf_el_WDu1q4h_0i_an_XQoPpbdxV;animation-name: kf_el_WDu1q4h_0i_an_XQoPpbdxV;-webkit-animation-timing-function: cubic-bezier(0, 0, 1, 1);animation-timing-function: cubic-bezier(0, 0, 1, 1);}#el_DE3uIC5ab1_an_3pedE2qDM{-webkit-animation-fill-mode: backwards;animation-fill-mode: backwards;-webkit-transform: translate(424.90484619140625px, 374.99560546875px) translate(-424.90484619140625px, -374.99560546875px) translate(0px, 0px);transform: translate(424.90484619140625px, 374.99560546875px) translate(-424.90484619140625px, -374.99560546875px) translate(0px, 0px);-webkit-animation-name: kf_el_DE3uIC5ab1_an_3pedE2qDM;animation-name: kf_el_DE3uIC5ab1_an_3pedE2qDM;-webkit-animation-timing-function: cubic-bezier(0, 0, 1, 1);animation-timing-function: cubic-bezier(0, 0, 1, 1);}#el_aEFgV7p5XY_an_Wum_W6rF5{-webkit-animation-fill-mode: backwards;animation-fill-mode: backwards;-webkit-transform: translate(602.994384765625px, 305.003173828125px) translate(-602.994384765625px, -305.003173828125px) translate(0px, 10px);transform: translate(602.994384765625px, 305.003173828125px) translate(-602.994384765625px, -305.003173828125px) translate(0px, 10px);-webkit-animation-name: kf_el_aEFgV7p5XY_an_Wum_W6rF5;animation-name: kf_el_aEFgV7p5XY_an_Wum_W6rF5;-webkit-animation-timing-function: cubic-bezier(0, 0, 1, 1);animation-timing-function: cubic-bezier(0, 0, 1, 1);}</style>
  <defs>
    
  </defs>
  <g id="el_w1pANYMQHs_an_TUpVhj6Qq" data-animator-group="true" data-animator-type="0"><g id="el_w1pANYMQHs_an_L5OcIQjG8" data-animator-group="true" data-animator-type="2"><text id="el_w1pANYMQHs" data-name="  เป็นสัญญาณที่สำคัญของกระบวนการต่างๆที่เกิดขึ้น ในชั้นบรรยากาศ">		เป็นสัญญาณที่สำคัญของกระบวนการต่างๆที่เกิดขึ้น<tspan x="0" dy="36" id="el_DR2eL1iX_1">ในชั้นบรรยากาศ เมฆชี้ให้เห็นถึงอากาศชื้นที่กำลังเคลื่อนตัว</tspan><tspan x="0" dy="36" id="el_OztXP2wrnc">สูงขึ้น และอาจจะมีหยาดน้ำฟ้าเกิดขึ้นได้ เมฆมักให้สัญญาณ</tspan><tspan x="0" dy="36" id="el_lDyjt0SfJC">ว่าสภาพอากาศจะมีการเปลี่ยนแปลง เช่น เมฆที่มีฐานเมฆสี</tspan><tspan x="0" dy="36" id="el_rQt6W0ox30">เทาดำ มักจะทำให้เกิดฝนตก</tspan></text></g></g>
  <g id="el_aEFgV7p5XY_an_Wum_W6rF5" data-animator-group="true" data-animator-type="0"><path d="M757.615,398.3a25.283,25.283,0,0,1-9.544-1.864,25.158,25.158,0,0,1-1.046,2.689c-0.022.048-.043,0.1-0.065,0.144-0.119.257-.243,0.512-0.37,0.764l-0.1.188c-0.131.254-.264,0.506-0.4,0.755l-0.042.072a25.29,25.29,0,0,1-1.467,2.3c-0.042.06-.084,0.12-0.127,0.179q-0.23.315-.468,0.622c-0.061.079-.123,0.157-0.185,0.235-0.158.2-.318,0.4-0.482,0.591-0.057.068-.116,0.135-0.175,0.2q-0.8.931-1.692,1.782c-0.09.086-.179,0.173-0.27,0.258-0.163.151-.328,0.3-0.494,0.445q-0.165.145-.333,0.288c-0.162.138-.324,0.275-0.49,0.409-0.123.1-.249,0.2-0.374,0.294-0.161.126-.322,0.253-0.487,0.375-0.215.159-.433,0.312-0.653,0.465-0.2.138-.4,0.272-0.606,0.4-0.163.106-.325,0.212-0.491,0.315s-0.307.186-.462,0.277-0.341.2-.513,0.3c-0.152.085-.3,0.169-0.458,0.251-0.191.1-.385,0.2-0.579,0.3-0.138.069-.275,0.14-0.415,0.206-0.323.154-.648,0.3-0.978,0.443-0.1.043-.206,0.082-0.308,0.124-0.248.1-.5,0.2-0.749,0.295-0.137.052-.276,0.1-0.415,0.149q-0.336.118-.678,0.23c-0.141.045-.283,0.09-0.425,0.133-0.244.074-.489,0.142-0.736,0.209-0.124.033-.246,0.069-0.371,0.1-0.367.093-.737,0.18-1.111,0.257-0.049.01-.1,0.017-0.149,0.027-0.33.066-.663,0.126-1,0.178-0.128.021-.256,0.037-0.384,0.056-0.264.037-.528,0.071-0.794,0.1-0.139.015-.279,0.029-0.418,0.042-0.273.026-.546,0.046-0.821,0.063-0.124.007-.249,0.017-0.374,0.023-0.4.018-.795,0.03-1.2,0.03a25.28,25.28,0,0,1-17.538-7.048c-0.285.273-.576,0.538-0.873,0.8h0q-0.444.387-.9,0.753l-0.011.009q-0.456.36-.927,0.7l-0.031.022q-0.462.333-.94,0.645l-0.057.037c-0.311.2-.625,0.4-0.944,0.585l-0.093.053c-0.31.181-.622,0.355-0.94,0.523l-0.136.07c-0.305.158-.613,0.313-0.926,0.459l-0.186.085c-0.3.137-.6,0.271-0.906,0.4-0.08.033-.162,0.063-0.242,0.1-0.291.117-.582,0.23-0.878,0.336-0.1.036-.2,0.069-0.305,0.1-0.279.1-.559,0.191-0.842,0.277-0.124.038-.249,0.071-0.373,0.106-0.266.077-.532,0.154-0.8,0.222-0.148.037-.3,0.068-0.448,0.1-0.25.058-.5,0.118-0.751,0.169-0.176.035-.354,0.063-0.531,0.094-0.231.042-.46,0.086-0.693,0.121-0.208.031-.42,0.054-0.63,0.08s-0.409.055-.616,0.076c-0.258.026-.519,0.041-0.779,0.059-0.163.012-.324,0.028-0.488,0.036q-0.639.033-1.286,0.033a25.28,25.28,0,0,1-17.538-7.048c-0.285.273-.576,0.538-0.873,0.8h0q-0.444.387-.9,0.753l-0.011.009q-0.456.36-.927,0.7l-0.031.022q-0.462.333-.94,0.645l-0.057.037c-0.311.2-.625,0.4-0.944,0.585l-0.093.053c-0.31.181-.622,0.355-0.939,0.523l-0.137.07c-0.305.158-.613,0.313-0.926,0.459-0.061.029-.124,0.056-0.186,0.085-0.3.137-.6,0.271-0.9,0.4-0.081.033-.162,0.063-0.243,0.1-0.291.117-.582,0.23-0.878,0.336-0.1.036-.2,0.069-0.305,0.1-0.279.1-.559,0.191-0.842,0.277-0.124.038-.249,0.071-0.373,0.106-0.266.077-.532,0.154-0.8,0.222-0.148.037-.3,0.068-0.448,0.1-0.249.058-.5,0.118-0.751,0.169-0.176.035-.354,0.063-0.531,0.094-0.23.042-.46,0.086-0.693,0.121-0.208.031-.42,0.054-0.63,0.08s-0.409.055-.616,0.076c-0.258.026-.519,0.041-0.779,0.059-0.163.012-.324,0.028-0.487,0.036-0.427.022-.855,0.033-1.287,0.033a25.387,25.387,0,0,1-23.494-15.781h0c-0.288.021-.576,0.04-0.866,0.052-0.34.015-.681,0.026-1.024,0.026a25.4,25.4,0,0,1,0-50.805c0.382,0,.761.011,1.139,0.028l0.42,0.024c0.231,0.014.462,0.032,0.692,0.052,0.169,0.015.338,0.029,0.506,0.047,0.316,0.035.63,0.074,0.942,0.12h0c0-.091-0.007-0.18-0.007-0.271a25.394,25.394,0,0,1,25.385-25.4c0.464,0,.924.014,1.382,0.039,0.14,0.007.279,0.022,0.419,0.032,0.318,0.022.636,0.046,0.951,0.08,0.157,0.017.311,0.04,0.467,0.059,0.3,0.038.6,0.078,0.891,0.126,0.153,0.025.3,0.054,0.457,0.082,0.3,0.054.594,0.112,0.888,0.176l0.424,0.1c0.3,0.073.609,0.151,0.91,0.234l0.372,0.106c0.321,0.094.64,0.2,0.956,0.3,0.1,0.033.2,0.066,0.3,0.1q0.525,0.185,1.037.392c0.064,0.025.128,0.049,0.191,0.075q0.609,0.25,1.2.53h0a25.38,25.38,0,0,1,49.762,1.885h0c0.29-.195.586-0.383,0.884-0.567,0.111-.068.224-0.134,0.337-0.2q0.312-.186.632-0.364c0.117-.065.234-0.13,0.352-0.193q0.394-.212.8-0.41l0.187-.094c0.319-.153.642-0.3,0.967-0.437,0.116-.05.232-0.1,0.348-0.145,0.236-.1.473-0.19,0.712-0.281,0.119-.044.237-0.089,0.356-0.132q0.463-.167.934-0.316l0.122-.041c0.351-.109.706-0.208,1.063-0.3,0.114-.03.229-0.057,0.344-0.086q0.395-.1.794-0.183c0.117-.025.233-0.051,0.349-0.074,0.355-.071.711-0.136,1.071-0.191,0.017,0,.034-0.007.052-0.009,0.376-.058.755-0.1,1.136-0.145,0.114-.012.229-0.022,0.343-0.032,0.285-.027.57-0.049,0.858-0.066,0.115-.006.23-0.014,0.346-0.019,0.39-.018.781-0.03,1.176-0.03a25.393,25.393,0,0,1,25.384,25.4A25.4,25.4,0,0,1,757.615,398.3Z" id="el_aEFgV7p5XY"/></g>
  <g id="el_DE3uIC5ab1_an_3pedE2qDM" data-animator-group="true" data-animator-type="0"><path d="M510.9,427.212a13.964,13.964,0,0,1-5.3-1.043,14.225,14.225,0,0,1-.581,1.5l-0.036.08q-0.1.216-.206,0.428l-0.053.1c-0.073.142-.147,0.283-0.224,0.422-0.008.014-.016,0.027-0.023,0.041a14.593,14.593,0,0,1-.815,1.29l-0.071.1q-0.128.176-.26,0.348c-0.034.044-.068,0.088-0.1,0.131-0.087.112-.176,0.222-0.267,0.331l-0.1.113q-0.447.522-.941,1c-0.05.048-.1,0.1-0.15,0.145-0.09.084-.182,0.166-0.274,0.248-0.061.055-.123,0.109-0.185,0.162-0.09.077-.18,0.154-0.272,0.229l-0.208.164c-0.09.07-.179,0.142-0.271,0.21-0.119.089-.24,0.175-0.363,0.26s-0.223.153-.336,0.227c-0.09.059-.181,0.119-0.273,0.176s-0.171.1-.257,0.155-0.189.111-.284,0.165l-0.255.141c-0.106.057-.214,0.112-0.322,0.166l-0.23.116c-0.179.086-.36,0.169-0.544,0.247-0.056.024-.114,0.046-0.171,0.07-0.137.057-.276,0.112-0.416,0.165-0.076.029-.153,0.056-0.23,0.083-0.125.045-.25,0.088-0.377,0.129l-0.236.074c-0.135.041-.272,0.08-0.409,0.117-0.069.019-.137,0.039-0.206,0.056-0.2.052-.41,0.1-0.617,0.144l-0.083.015c-0.184.037-.368,0.07-0.554,0.1l-0.214.031c-0.146.021-.293,0.04-0.44,0.056-0.078.009-.155,0.017-0.233,0.024-0.151.015-.3,0.026-0.456,0.035-0.069,0-.138.01-0.208,0.013-0.22.01-.441,0.017-0.665,0.017a13.994,13.994,0,0,1-9.743-3.944q-0.237.228-.485,0.446h0c-0.164.144-.331,0.285-0.5,0.421l-0.007,0q-0.252.2-.515,0.393l-0.016.012q-0.258.186-.523,0.361l-0.032.02c-0.172.113-.347,0.223-0.524,0.328l-0.052.03c-0.172.1-.345,0.2-0.522,0.292-0.025.014-.05,0.026-0.075,0.039-0.17.089-.341,0.175-0.515,0.258l-0.1.047q-0.249.115-.5,0.222l-0.135.053q-0.242.1-.487,0.188c-0.057.021-.114,0.039-0.17,0.058-0.155.054-.31,0.107-0.468,0.155-0.069.021-.138,0.04-0.207,0.06-0.148.042-.3,0.085-0.445,0.123-0.082.021-.166,0.039-0.249,0.058-0.139.033-.277,0.066-0.417,0.1-0.1.019-.2,0.035-0.3,0.053-0.128.023-.256,0.047-0.385,0.067s-0.233.03-.35,0.045-0.227.031-.342,0.042c-0.144.015-.289,0.024-0.433,0.034-0.091.006-.18,0.015-0.271,0.02q-0.355.018-.715,0.018a13.994,13.994,0,0,1-9.743-3.944q-0.237.228-.485,0.446h0c-0.164.144-.332,0.285-0.5,0.421l-0.007,0q-0.252.2-.515,0.393l-0.017.012q-0.257.186-.522,0.361l-0.032.02c-0.172.113-.347,0.223-0.524,0.328l-0.052.03c-0.172.1-.345,0.2-0.522,0.292-0.025.014-.05,0.026-0.075,0.039-0.17.089-.341,0.175-0.515,0.258l-0.1.047c-0.167.077-.334,0.151-0.5,0.222l-0.135.053c-0.162.066-.323,0.129-0.488,0.188-0.056.021-.113,0.039-0.169,0.058-0.155.054-.311,0.107-0.468,0.155-0.069.021-.138,0.04-0.207,0.06-0.148.042-.3,0.085-0.445,0.123-0.083.021-.166,0.039-0.249,0.058-0.139.033-.277,0.066-0.418,0.1-0.1.019-.2,0.035-0.294,0.053-0.128.023-.256,0.047-0.385,0.067s-0.234.03-.35,0.045-0.228.031-.342,0.042c-0.144.015-.289,0.024-0.434,0.034-0.09.006-.179,0.015-0.27,0.02q-0.356.018-.715,0.018a14.105,14.105,0,0,1-13.052-8.831h0c-0.16.011-.32,0.022-0.481,0.028-0.189.009-.379,0.015-0.569,0.015a14.216,14.216,0,0,1,0-28.432c0.212,0,.423.006,0.633,0.016,0.078,0,.155.008,0.233,0.013,0.128,0.008.256,0.018,0.384,0.029,0.094,0.009.188,0.016,0.281,0.027,0.176,0.019.35,0.041,0.524,0.067h0c0-.051,0-0.1,0-0.152a14.159,14.159,0,0,1,14.1-14.216c0.258,0,.514.008,0.769,0.021,0.077,0,.154.013,0.232,0.018,0.177,0.013.354,0.026,0.529,0.045,0.087,0.01.173,0.022,0.259,0.033,0.166,0.022.331,0.044,0.5,0.071,0.085,0.014.169,0.03,0.254,0.046,0.165,0.03.33,0.062,0.493,0.1l0.236,0.055c0.169,0.041.338,0.084,0.5,0.131l0.207,0.059c0.179,0.053.355,0.11,0.531,0.169l0.166,0.057q0.291,0.1.576,0.219l0.107,0.043c0.225,0.093.447,0.191,0.667,0.3h0a14.08,14.08,0,0,1,27.645,1.055h0c0.162-.109.326-0.214,0.491-0.317l0.187-.113c0.116-.069.233-0.137,0.351-0.2l0.2-.109q0.22-.118.444-0.229l0.1-.052c0.177-.086.356-0.167,0.537-0.245,0.064-.028.129-0.054,0.193-0.081,0.131-.054.263-0.107,0.4-0.157l0.2-.074q0.256-.094.519-0.177l0.068-.023c0.195-.061.392-0.116,0.59-0.169l0.191-.048c0.147-.037.294-0.071,0.442-0.1l0.193-.041q0.3-.06.6-0.107l0.029-.005c0.209-.032.42-0.058,0.631-0.081l0.191-.018c0.158-.015.317-0.027,0.476-0.037l0.193-.011c0.216-.01.434-0.016,0.653-0.016a14.158,14.158,0,0,1,14.1,14.216A14.216,14.216,0,0,1,510.9,427.212Z" id="el_DE3uIC5ab1"/></g>
  <g id="el_WDu1q4h_0i_an_XQoPpbdxV" data-animator-group="true" data-animator-type="0"><path id="el_WDu1q4h_0i" data-name="Ellipse 1 copy" d="M136.1,90.331A18.857,18.857,0,0,1,129,88.946a18.861,18.861,0,0,1-.778,2c-0.017.036-.032,0.071-0.049,0.107-0.088.191-.181,0.38-0.275,0.568l-0.072.14q-0.145.283-.3,0.561l-0.031.054a18.846,18.846,0,0,1-1.092,1.712c-0.031.044-.062,0.089-0.094,0.133-0.114.156-.231,0.31-0.349,0.462l-0.138.175q-0.176.222-.358,0.439c-0.043.051-.087,0.1-0.131,0.15q-0.6.692-1.259,1.324c-0.067.064-.134,0.129-0.2,0.192-0.12.112-.243,0.221-0.367,0.33-0.082.072-.165,0.144-0.248,0.214-0.12.1-.242,0.2-0.365,0.3-0.092.074-.185,0.146-0.278,0.218-0.12.094-.24,0.188-0.363,0.279-0.16.118-.323,0.232-0.486,0.345s-0.3.2-.451,0.3c-0.121.079-.242,0.158-0.365,0.234s-0.229.138-.345,0.206-0.253.148-.381,0.219c-0.113.063-.227,0.126-0.341,0.187-0.143.076-.287,0.148-0.431,0.221-0.1.051-.2,0.1-0.309,0.153-0.241.115-.483,0.225-0.729,0.329-0.075.032-.152,0.061-0.229,0.092-0.184.076-.37,0.15-0.557,0.22-0.1.038-.206,0.074-0.309,0.11q-0.251.088-.5,0.171c-0.105.034-.21,0.067-0.316,0.1-0.182.055-.365,0.106-0.548,0.155-0.092.025-.184,0.051-0.276,0.075-0.274.069-.549,0.133-0.827,0.19-0.037.008-.075,0.014-0.112,0.021-0.245.049-.493,0.093-0.742,0.132-0.095.015-.19,0.028-0.286,0.041q-0.294.042-.591,0.075c-0.1.012-.207,0.022-0.311,0.032-0.2.019-.406,0.034-0.611,0.046-0.093.006-.185,0.013-0.278,0.017-0.3.014-.593,0.023-0.891,0.023a18.836,18.836,0,0,1-13.057-5.237q-0.318.3-.65,0.593h0q-0.33.287-.673,0.559l-0.008.007q-0.339.268-.69,0.521l-0.023.016q-0.344.247-.7,0.479l-0.043.028q-0.346.224-.7,0.434l-0.069.04q-0.345.2-.7,0.388l-0.1.052c-0.227.118-.457,0.233-0.689,0.342l-0.139.062c-0.223.1-.447,0.2-0.674,0.3-0.06.025-.121,0.047-0.181,0.071-0.216.087-.433,0.171-0.653,0.25-0.075.027-.152,0.051-0.227,0.077-0.208.071-.416,0.141-0.627,0.206-0.092.028-.185,0.052-0.278,0.078-0.2.057-.4,0.114-0.6,0.165-0.11.027-.222,0.051-0.333,0.076-0.186.044-.372,0.088-0.56,0.126-0.131.026-.263,0.047-0.395,0.07-0.172.031-.343,0.064-0.516,0.09-0.155.023-.313,0.04-0.469,0.059s-0.3.042-.458,0.057c-0.192.019-.387,0.031-0.581,0.044-0.121.008-.241,0.021-0.363,0.027Q85.39,102,84.908,102a18.837,18.837,0,0,1-13.056-5.237q-0.318.3-.65,0.593h0q-0.33.287-.673,0.559l-0.009.007q-0.339.268-.69,0.521l-0.023.016q-0.344.247-.7,0.479l-0.043.028q-0.346.224-.7,0.434l-0.069.04q-0.345.2-.7,0.388l-0.1.052c-0.227.118-.457,0.233-0.689,0.342l-0.139.062c-0.223.1-.447,0.2-0.674,0.3-0.06.025-.121,0.047-0.181,0.071-0.216.087-.433,0.171-0.653,0.25-0.075.027-.151,0.051-0.227,0.077-0.208.071-.416,0.141-0.627,0.206-0.092.028-.185,0.052-0.278,0.078-0.2.057-.4,0.114-0.6,0.165-0.11.027-.222,0.051-0.333,0.076-0.186.044-.372,0.088-0.56,0.126-0.131.026-.263,0.047-0.395,0.07-0.172.031-.343,0.064-0.516,0.09-0.155.023-.313,0.04-0.469,0.059s-0.3.042-.458,0.057c-0.192.019-.387,0.031-0.581,0.044-0.121.008-.241,0.021-0.363,0.027Q59.277,102,58.795,102A18.9,18.9,0,0,1,41.3,90.273h0c-0.214.016-.428,0.03-0.645,0.038-0.253.012-.507,0.019-0.763,0.019a18.877,18.877,0,1,1,0-37.754c0.285,0,.567.009,0.848,0.021,0.1,0,.208.011,0.312,0.017q0.259,0.016.515,0.039c0.126,0.011.252,0.021,0.377,0.035q0.353,0.039.7,0.089h0c0-.068-0.006-0.134-0.006-0.2A18.887,18.887,0,0,1,61.544,33.7c0.346,0,.688.011,1.029,0.029,0.1,0.006.207,0.016,0.311,0.024,0.237,0.017.474,0.035,0.709,0.06,0.117,0.013.232,0.029,0.347,0.044,0.222,0.028.444,0.058,0.663,0.093,0.114,0.019.227,0.04,0.341,0.061,0.221,0.04.442,0.083,0.661,0.131,0.106,0.023.211,0.048,0.316,0.073q0.341,0.081.678,0.174l0.277,0.078q0.359,0.105.712,0.225l0.223,0.075q0.39,0.137.772,0.291l0.142,0.056q0.453,0.186.894,0.393h0a18.9,18.9,0,0,1,37.046,1.4h0c0.216-.145.435-0.285,0.657-0.421,0.083-.051.167-0.1,0.251-0.15,0.156-.092.312-0.182,0.471-0.27,0.087-.048.174-0.1,0.262-0.144q0.294-.157.595-0.3c0.046-.023.092-0.047,0.139-0.07,0.237-.114.478-0.221,0.72-0.325,0.086-.037.172-0.072,0.259-0.107q0.262-.108.53-0.209c0.088-.033.176-0.067,0.265-0.1q0.345-.124.7-0.235l0.091-.03c0.262-.081.526-0.155,0.792-0.224,0.085-.022.17-0.043,0.256-0.064q0.294-.073.591-0.136c0.087-.019.173-0.037,0.26-0.055,0.264-.052.529-0.1,0.8-0.142l0.038-.007c0.28-.043.563-0.077,0.846-0.107l0.255-.024q0.318-.03.639-0.048l0.258-.015c0.29-.013.582-0.022,0.875-0.022a18.888,18.888,0,0,1,18.9,18.877A18.877,18.877,0,1,1,136.1,90.331Z"/></g>
</svg>